module assignment

go 1.14

require (
	github.com/gogo/protobuf v1.3.1
	github.com/google/uuid v1.1.1
	github.com/hyperledger/fabric-chaincode-go v0.0.0-20200424173110-d7076418f212
	github.com/hyperledger/fabric-protos-go v0.0.0-20200424173316-dd554ba3746e
	github.com/stretchr/testify v1.5.1
)
